==========[ Libraries ]========================================================
                |
  CEGUI         |  2004 - 2014   Paul D Turner &
                |                  The CEGUI Development Team
  SILLY         |  2004 - 2006   Paul D Turner &
                |                  The CEGUI Development Team
  dear ImGui    |  2014 - 2019   Omar Cornut and
                |                  ImGui contributors
  SteamAPI      |  1996 - 2008   Valve Corporation
  ADL           |  2008 - 2013   Advanced Micro Devices, Inc.
  NvAPI         |  2005 - 2010   NVIDIA Corporation.
  MinHook       |  2009 - 2016   Tsuda Kageyu
  OpenLibSys    |  2007 - 2008   OpenLibSys.org
  FreeType2     |  2000,
                |  2001 - 2002   Francesco Zappa Nardelli
  FreeType2     |  2000          Computing Research Labs,
                |                  New Mexico State University
  libpcre       |  1997 - 2010   University of Cambridge
                |  2007 - 2010   Google Inc.
  zlib          |  1995 - 2010   Jean-loup Gailly and Mark Adler
  GLEW          |  2002 - 2007   Milan Ikits         <milan ikits[]ieee org>
                |                Marcelo E. Magallon <mmagallo[]debian org>
  GLFW 2.7.2    |  2002 - 2006   Marcus Geelnard
                |  2006 - 2010   Camilla Berglund    <elmindreda@elmindreda.org>
                |  2002          Lev Povalahev
  GLM           |  2005 - 2018   G-Truc Creation
  Mesa 3-D 7    |  1999 - 2007   Brian Paul
                |  2007          The Khronos Group Inc.
  Vulkan        |  2015 - 2016   The Khronos Group Inc.
                |
~~~~~~~~~~[ Algorithms ]~~~~~~~~~~~~~~~~~~~~~~~~~~~~~~~~~~~~~~~~~~~~~~~~~~~~~~~
                |                                            |
 "Fast" CRC32C  |       CRC-32C (Castagnoli) Polynomial      |      Notes
 =============  +  ========================================  +  ==============
  SW: Fallback  |   2013 - 2014   Max Vysokikh               |  non-SSE4.2/AMD
  HW:  SSE4.2   |   2016          Mark Adler, Robert Vazan   |   ~15x Speedup
                |                                            |
  Naive  SHA1   |           SpecialK/sha1.{h|cpp}            |
 =============  +  ========================================  +  ==============
  SW: Plain C   |   2013 - 2016   Steve Reid                 |  Optimized for
                |   2016 - 2018   Andon M. Coleman           |  Block Devices
-------------------------------------------------------------------------------